{"data": {"hits": [{"data_type": "Annotated Somatic Mutation", "updated_datetime": "2016-09-29T21:15:55.100009-05:00", "created_datetime": "2016-05-04T16:05:36.917600-05:00", "file_name": "8bfeb962-e2b3-463a-9fbb-f5c6296f3ec2.vep.reheader.vcf.gz", "md5sum": "ace85792006140a9b4895976ecba725e", "data_format": "VCF", "acl": ["phs000178"], "access": "controlled", "state": "submitted", "file_id": "8bfeb962-e2b3-463a-9fbb-f5c6296f3ec2", "data_category": "Simple Nucleotide Variation", "file_size": 378676, "submitter_id": "TCGA-E3-A3E3-01A-11D-A20C-08_TCGA-E3-A3E3-10A-01D-A20C-08_somaticsniper_annotated", "type": "annotated_somatic_mutation", "file_state": "processed", "experimental_strategy": "WXS"}, {"data_type": "Methylation Beta Value", "updated_datetime": "2016-10-27T21:58:12.297090-05:00", "created_datetime": "2016-10-27T21:58:12.297090-05:00", "file_name": "jhu-usc.edu_THCA.HumanMethylation450.3.lvl-3.TCGA-EM-A1YD-11A-11D-A14Z-05.gdc_hg38.txt", "md5sum": "36ffbc7fea6400383691afde8b19f2ee", "data_format": "TXT", "acl": ["open"], "access": "open", "platform": "Illumina Human Methylation 450", "state": "submitted", "file_id": "fd8a5011-5dfa-4a9d-ae21-f638b9616153", "data_category": "DNA Methylation", "file_size": 141301769, "submitter_id": "77eb2c26-b386-4254-94c5-4fcf83993221-beta-value", "type": "methylation_beta_value", "experimental_strategy": "Methylation Array"}, {"data_type": "Clinical Supplement", "updated_datetime": "2016-09-14T11:25:51.615985-05:00", "created_datetime": "2016-05-04T09:11:20.201320-05:00", "file_name": "nationwidechildrens.org_clinical.TCGA-QT-A5XO.xml", "md5sum": "39704471366afcb874d8cee790c68a67", "data_format": "BCR XML", "acl": ["open"], "access": "open", "state": "live", "state_comment": null, "file_id": "49c24b40-f086-42bf-b591-253910f63def", "data_category": "Clinical", "file_size": 20982, "submitter_id": null, "type": "clinical_supplement"}, {"data_type": "Masked Copy Number Segment", "updated_datetime": "2016-09-29T21:54:58.373972-05:00", "created_datetime": "2016-05-03T03:29:52.126663-05:00", "file_name": "SNOWS_p_TCGA_Batch_309_310_NSP_GenomeWideSNP_6_C01_1362120.nocnv_grch38.seg.txt", "md5sum": "ab0dcb6728eeb0caca87bb8d56d504eb", "data_format": "TXT", "acl": ["open"], "access": "open", "platform": "Affymetrix SNP 6.0", "state": "submitted", "file_id": "a43c4463-dc31-450e-9a12-64cf9dedc96d", "data_category": "Copy Number Variation", "file_size": 4536, "submitter_id": "a8545cfc-fbaf-4b3d-a539-411818df3934_nocnv", "type": "copy_number_segment", "file_state": "processed", "experimental_strategy": "Genotyping Array"}, {"data_type": "Aligned Reads", "updated_datetime": "2016-09-29T22:01:04.154586-05:00", "created_datetime": "2016-05-28T18:38:39.666793-05:00", "file_name": "f49429e8-6f2b-4546-af98-bbcc17819f0c_gdc_realn_rehead.bam", "md5sum": "8f3cdc3bf16f0d6de5cea19958ecdedc", "data_format": "BAM", "acl": ["phs000178"], "access": "controlled", "platform": "Illumina", "state": "submitted", "file_id": "a7fd6aae-6af5-490f-b65e-97c7bfcf44bf", "data_category": "Raw Sequencing Data", "file_size": 2061824371, "submitter_id": "f49429e8-6f2b-4546-af98-bbcc17819f0c", "type": "aligned_reads", "file_state": "processed", "experimental_strategy": "RNA-Seq"}, {"data_type": "Aligned Reads", "updated_datetime": "2016-09-29T18:06:42.655488-05:00", "created_datetime": "2016-05-03T13:43:08.390772-05:00", "file_name": "C529.TCGA-HC-7737-11A-02D-2114-08.1_gdc_realn.bam", "md5sum": "ac144464dce61d05a58e7d83530c2a18", "data_format": "BAM", "acl": ["phs000178"], "access": "controlled", "platform": "Illumina", "state": "submitted", "file_id": "164511a9-2f56-49e0-b5cf-9c4be32f8fc7", "data_category": "Raw Sequencing Data", "file_size": 12036462076, "submitter_id": "606ca8e2-3442-4b78-899c-9b27e292b075", "type": "aligned_reads", "file_state": "processed", "experimental_strategy": "WXS"}, {"data_type": "Methylation Beta Value", "updated_datetime": "2016-10-27T21:58:12.297090-05:00", "created_datetime": "2016-10-27T21:58:12.297090-05:00", "file_name": "jhu-usc.edu_LAML.HumanMethylation450.2.lvl-3.TCGA-AB-2955-03A-01D-0742-05.gdc_hg38.txt", "md5sum": "c0aa7cd2700dab2298cf25d4da581151", "data_format": "TXT", "acl": ["open"], "access": "open", "platform": "Illumina Human Methylation 450", "state": "submitted", "file_id": "ce8d8ba3-fdd7-4b3c-9bba-20c3f578d277", "data_category": "DNA Methylation", "file_size": 141280622, "submitter_id": "185c04ce-6b51-416a-92fc-d3ecfdce3d6e-beta-value", "type": "methylation_beta_value", "experimental_strategy": "Methylation Array"}, {"data_type": "Raw Simple Somatic Mutation", "updated_datetime": "2016-09-29T20:46:17.811696-05:00", "created_datetime": "2016-05-04T15:21:07.352135-05:00", "file_name": "796ea613-f0da-4592-a29e-74edf27a442a.vcf.gz", "md5sum": "5890195a2251f8102b0cd34b8ad08b33", "data_format": "VCF", "acl": ["phs000178"], "access": "controlled", "state": "submitted", "file_id": "796ea613-f0da-4592-a29e-74edf27a442a", "data_category": "Simple Nucleotide Variation", "file_size": 160084, "submitter_id": "TCGA-44-2656-01B-06D-A271-08_TCGA-44-2656-10A-01D-A271-08_somaticsniper", "type": "simple_somatic_mutation", "file_state": "processed", "experimental_strategy": "WXS"}, {"data_type": "Annotated Somatic Mutation", "updated_datetime": "2016-09-29T19:35:19.556067-05:00", "created_datetime": "2016-05-29T11:00:12.508960-05:00", "file_name": "4dd5ba61-80ac-440f-aced-ce0d3d468f6b.vep.reheader.vcf.gz", "md5sum": "9cc457a70e3d4c8ecd5cfe936fe7a263", "data_format": "VCF", "acl": ["phs000178"], "access": "controlled", "state": "submitted", "file_id": "4dd5ba61-80ac-440f-aced-ce0d3d468f6b", "data_category": "Simple Nucleotide Variation", "file_size": 302033, "submitter_id": "TCGA-AR-A5QP-01A-11D-A28B-09_TCGA-AR-A5QP-10A-01D-A28E-09_somaticsniper_annotated", "type": "annotated_somatic_mutation", "file_state": "processed", "experimental_strategy": "WXS"}, {"data_type": "Aligned Reads", "updated_datetime": "2016-09-29T20:07:45.862432-05:00", "created_datetime": "2016-05-29T23:50:17.072708-05:00", "file_name": "C495.TCGA-QK-A6V9-01A-11D-A34J-08.2_gdc_realn.bam", "md5sum": "7159005e5eef731cd5210205cd6026a9", "data_format": "BAM", "acl": ["phs000178"], "access": "controlled", "platform": "Illumina", "state": "submitted", "file_id": "61cb79e3-ec5f-4211-b41d-64ff63b30d0e", "data_category": "Raw Sequencing Data", "file_size": 17038419572, "submitter_id": "c47e6c13-8664-4589-b89b-893518621312", "type": "aligned_reads", "file_state": "processed", "experimental_strategy": "WXS"}], "pagination": {"count": 10, "sort": "", "from": 1, "page": 1, "total": 274821, "pages": 27483, "size": 10}}, "warnings": {}}